
Microsoft(R) .NET Framework 强名称实用工具 版本 4.0.30319.0
版权所有(C) Microsoft Corporation。保留所有权利。

公钥(哈希算法: sha256):
002400000c8000009400000006020000002400005253413100040000010001006998c134a114ce
5f9a7ecd131285633786b158331e2fb58817d8ed690109ab87b3a18f53901578c8504f19a6c473
53925fb23afa50dbdccce902fdf63c3d9c82f915f3f92b7299c6bd0629610ff69c904d869754e0
5cab3424647ce5cddec2db657e36af096ee3705bac47323c6974d4d28a5f9f412bcf525ec3a0a1
2e1325da

公钥标记为 3cd4c70355645460
